{
  "Container": {
	"NameSpace": "System",
	"Name": "AccountAggregatedUsage",
	"Version": "00.01.00",
	"Description": "Account Aggregated Usage",
	"Fixed": "true",
	"Persist": "true",
	"Fields": [
	  {
		"Name": "actNo",
		"Type": "System.String"
	  },
	  {
		"Name": "thisMonthUsage",
		"Type": "System.Long"
	  }
	],
	"PrimaryKey": [
	  "actNo"
	],
	"PartitionKey": [
	  "actNo"
	]
  }
}
